%YAML 1.1
%TAG !u! tag:unity3d.com,2011:
--- !u!162 &1
EditorUserSettings:
  m_ObjectHideFlags: 0
  serializedVersion: 4
  m_ConfigSettings:
    RecentlyUsedSceneGuid-0:
      value: 01070c0704570d5d585a552014250e4444151c7e7d7170357f28186bb4b1606e
      flags: 0
    RecentlyUsedSceneGuid-1:
      value: 55525605550050580e5e5d711325084445154d737e7d71637b784f61b7b56160
      flags: 0
    RecentlyUsedSceneGuid-2:
      value: 0109045f560508030e085a241271074415164d7f7d707268782c4e35e4b53561
      flags: 0
    RecentlyUsedSceneGuid-3:
      value: 500506560651500f5e5f0f7541735d444e161e2e7d7027697e794e6bb1b43061
      flags: 0
    RecentlyUsedSceneGuid-4:
      value: 5b540004510c0b035f595b7448775e44174f19727a707e607d7a4a67b0e2666c
      flags: 0
    RecentlyUsedSceneGuid-5:
      value: 000703575c0758085f565e7b13775e44144f407f2f7d73337f7c4967b2b3673c
      flags: 0
    RecentlyUsedSceneGuid-6:
      value: 5152510706000a5d5a0a097015775d4142161c7d7c2c7532797d4863e0e66260
      flags: 0
    vcSharedLogLevel:
      value: 0d5e400f0650
      flags: 0
  m_VCAutomaticAdd: 1
  m_VCDebugCom: 0
  m_VCDebugCmd: 0
  m_VCDebugOut: 0
  m_SemanticMergeMode: 2
  m_DesiredImportWorkerCount: 4
  m_StandbyImportWorkerCount: 2
  m_IdleImportWorkerShutdownDelay: 60000
  m_VCShowFailedCheckout: 1
  m_VCOverwriteFailedCheckoutAssets: 1
  m_VCProjectOverlayIcons: 1
  m_VCHierarchyOverlayIcons: 1
  m_VCOtherOverlayIcons: 1
  m_VCAllowAsyncUpdate: 0
  m_ArtifactGarbageCollection: 1
